<define-tag pagetitle>DLA-3192-1 lava</define-tag>
<define-tag report_date>2022-11-17</define-tag>
<define-tag secrefs>CVE-2022-42902 Bug#1021737</define-tag>
<define-tag packages>lava</define-tag>
<define-tag isvulnerable>yes</define-tag>
<define-tag fixed>yes</define-tag>
<define-tag fixed-section>no</define-tag>

#use wml::debian::security

