<define-tag pagetitle>DLA-3037-1 libjpeg-turbo</define-tag>
<define-tag report_date>2022-5-31</define-tag>
<define-tag secrefs>CVE-2019-2201</define-tag>
<define-tag packages>libjpeg-turbo</define-tag>
<define-tag isvulnerable>yes</define-tag>
<define-tag fixed>yes</define-tag>
<define-tag fixed-section>no</define-tag>

#use wml::debian::security

