<define-tag pagetitle>DSA-4631-1 pillow</define-tag>
<define-tag report_date>2020-2-21</define-tag>
<define-tag secrefs>CVE-2019-16865 CVE-2019-19911 CVE-2020-5311 CVE-2020-5312  CVE-2020-5313</define-tag>
<define-tag packages>pillow</define-tag>
<define-tag isvulnerable>yes</define-tag>
<define-tag fixed>yes</define-tag>
<define-tag fixed-section>no</define-tag>

#use wml::debian::security



</dl>
