<define-tag pagetitle>DLA-2742-1 ffmpeg</define-tag>
<define-tag report_date>2021-08-14</define-tag>
<define-tag secrefs>CVE-2020-21041 CVE-2020-22015 CVE-2020-22016 CVE-2020-22020 CVE-2020-22021 CVE-2020-22022 CVE-2020-22023 CVE-2020-22025 CVE-2020-22026 CVE-2020-22028 CVE-2020-22031 CVE-2020-22032 CVE-2020-22036 CVE-2021-3566 CVE-2021-38114</define-tag>
<define-tag packages>ffmpeg</define-tag>
<define-tag isvulnerable>yes</define-tag>
<define-tag fixed>yes</define-tag>
<define-tag fixed-section>no</define-tag>

#use wml::debian::security

