<define-tag pagetitle>DLA-2807-1 bind9</define-tag>
<define-tag report_date>2021-11-02</define-tag>
<define-tag secrefs>CVE-2018-5740 CVE-2021-25219 Bug#905743</define-tag>
<define-tag packages>bind9</define-tag>
<define-tag isvulnerable>yes</define-tag>
<define-tag fixed>yes</define-tag>
<define-tag fixed-section>no</define-tag>

#use wml::debian::security

