<define-tag pagetitle>DLA-816-1 svgsalamander</define-tag>
<define-tag report_date>2017-2-3</define-tag>
<define-tag secrefs>CVE-2017-5617 Bug##853134</define-tag>
<define-tag packages>svgsalamander</define-tag>
<define-tag isvulnerable>yes</define-tag>
<define-tag fixed>yes</define-tag>
<define-tag fixed-section>no</define-tag>

#use wml::debian::security

