<define-tag pagetitle>DLA-2317-1 pillow</define-tag>
<define-tag report_date>2020-08-08</define-tag>
<define-tag secrefs>CVE-2020-10177</define-tag>
<define-tag packages>pillow</define-tag>
<define-tag isvulnerable>yes</define-tag>
<define-tag fixed>yes</define-tag>
<define-tag fixed-section>no</define-tag>

#use wml::debian::security

