<define-tag pagetitle>DLA-2061-1 firefox-esr</define-tag>
<define-tag report_date>2020-01-09</define-tag>
<define-tag secrefs>CVE-2019-17016 CVE-2019-17017 CVE-2019-17022 CVE-2019-17024 CVE-2019-17026</define-tag>
<define-tag packages>firefox-esr</define-tag>
<define-tag isvulnerable>yes</define-tag>
<define-tag fixed>yes</define-tag>
<define-tag fixed-section>no</define-tag>

#use wml::debian::security

