<define-tag pagetitle>DLA-2460-1 golang-1.8</define-tag>
<define-tag report_date>2020-11-21</define-tag>
<define-tag secrefs>CVE-2020-15586 CVE-2020-16845 CVE-2020-28367</define-tag>
<define-tag packages>golang-1.8</define-tag>
<define-tag isvulnerable>yes</define-tag>
<define-tag fixed>yes</define-tag>
<define-tag fixed-section>no</define-tag>

#use wml::debian::security

