<define-tag pagetitle>DLA-1489-1 spice-gtk</define-tag>
<define-tag report_date>2018-8-31</define-tag>
<define-tag secrefs>CVE-2018-10873 Bug#906316</define-tag>
<define-tag packages>spice-gtk</define-tag>
<define-tag isvulnerable>yes</define-tag>
<define-tag fixed>yes</define-tag>
<define-tag fixed-section>no</define-tag>

#use wml::debian::security

