<define-tag pagetitle>DSA-5289-1 chromium</define-tag>
<define-tag report_date>2022-11-27</define-tag>
<define-tag secrefs>CVE-2022-4135</define-tag>
<define-tag packages>chromium</define-tag>
<define-tag isvulnerable>yes</define-tag>
<define-tag fixed>yes</define-tag>
<define-tag fixed-section>no</define-tag>

#use wml::debian::security



</dl>
