<define-tag pagetitle>DSA-5247-1 barbican</define-tag>
<define-tag report_date>2022-10-04</define-tag>
<define-tag secrefs>CVE-2022-3100 Bug#1021139</define-tag>
<define-tag packages>barbican</define-tag>
<define-tag isvulnerable>yes</define-tag>
<define-tag fixed>yes</define-tag>
<define-tag fixed-section>no</define-tag>

#use wml::debian::security



</dl>
