<define-tag pagetitle>DSA-5187-1 chromium</define-tag>
<define-tag report_date>2022-7-22</define-tag>
<define-tag secrefs>CVE-2022-2163 CVE-2022-2477 CVE-2022-2478 CVE-2022-2479 CVE-2022-2480 CVE-2022-2481</define-tag>
<define-tag packages>chromium</define-tag>
<define-tag isvulnerable>yes</define-tag>
<define-tag fixed>yes</define-tag>
<define-tag fixed-section>no</define-tag>

#use wml::debian::security



</dl>
