<define-tag pagetitle>DSA-5254-1 python-django</define-tag>
<define-tag report_date>2022-10-15</define-tag>
<define-tag secrefs>CVE-2022-22818 CVE-2022-23833 CVE-2022-28346 CVE-2022-28347 CVE-2022-34265 CVE-2022-36359 CVE-2022-41323 Bug#1004752 Bug#1009677 Bug#1014541</define-tag>
<define-tag packages>python-django</define-tag>
<define-tag isvulnerable>yes</define-tag>
<define-tag fixed>yes</define-tag>
<define-tag fixed-section>no</define-tag>

#use wml::debian::security



</dl>
