<define-tag pagetitle>DSA-5229-1 freecad</define-tag>
<define-tag report_date>2022-9-13</define-tag>
<define-tag secrefs>CVE-2021-45844 CVE-2021-45845</define-tag>
<define-tag packages>freecad</define-tag>
<define-tag isvulnerable>yes</define-tag>
<define-tag fixed>yes</define-tag>
<define-tag fixed-section>no</define-tag>

#use wml::debian::security



</dl>
