<define-tag pagetitle>DSA-5128-1 openjdk-17</define-tag>
<define-tag report_date>2022-5-03</define-tag>
<define-tag secrefs>CVE-2022-21426 CVE-2022-21434 CVE-2022-21443 CVE-2022-21449 CVE-2022-21476 CVE-2022-21496</define-tag>
<define-tag packages>openjdk-17</define-tag>
<define-tag isvulnerable>yes</define-tag>
<define-tag fixed>yes</define-tag>
<define-tag fixed-section>no</define-tag>

#use wml::debian::security



</dl>
