<define-tag pagetitle>DLA-1768-1 checkstyle</define-tag>
<define-tag report_date>2019-04-28</define-tag>
<define-tag secrefs>CVE-2019-9658</define-tag>
<define-tag packages>checkstyle</define-tag>
<define-tag isvulnerable>yes</define-tag>
<define-tag fixed>yes</define-tag>
<define-tag fixed-section>no</define-tag>

#use wml::debian::security

